{"warnings": [{"errorId": 12008, "domain": "API_BROWSE", "category": "REQUEST", "message": "The 'sort' value is invalid. For the valid values, refer to the API call documentation.", "parameters": [{"name": "sort", "value": "best_match"}]}], "href": "https://api.ebay.com/buy/browse/v1/item_summary/search_by_image?limit=3&offset=0", "total": 5192170, "next": "https://api.ebay.com/buy/browse/v1/item_summary/search_by_image?limit=3&offset=3", "limit": 3, "offset": 0, "itemSummaries": [{"itemId": "v1|235048668880|0", "title": "Nerf Gun Lot (12)", "leafCategoryIds": ["158749"], "categories": [{"categoryId": "158749", "categoryName": "Dart Guns & Soft Darts"}, {"categoryId": "220", "categoryName": "Toys & Hobbies"}, {"categoryId": "11743", "categoryName": "Outdoor Toys & Structures"}], "image": {"imageUrl": "https://i.ebayimg.com/thumbs/images/g/PuYAAOSwr4lkiJZB/s-l225.jpg"}, "price": {"value": "65.00", "currency": "USD"}, "itemHref": "https://api.ebay.com/buy/browse/v1/item/v1%7C235048668880%7C0", "seller": {"username": "2000mvpjeter", "feedbackPercentage": "100.0", "feedbackScore": 1619}, "condition": "Used", "conditionId": "3000", "thumbnailImages": [{"imageUrl": "https://i.ebayimg.com/images/g/PuYAAOSwr4lkiJZB/s-l1600.jpg"}], "shippingOptions": [{"shippingCostType": "CALCULATED"}], "buyingOptions": ["FIXED_PRICE", "BEST_OFFER"], "itemWebUrl": "https://www.ebay.com/itm/235048668880?hash=item36b9fe0ed0:g:PuYAAOSwr4lkiJZB", "itemLocation": {"postalCode": "769**", "country": "US"}, "adultOnly": false, "legacyItemId": "235048668880", "availableCoupons": false, "itemCreationDate": "2023-06-13T16:18:44.000Z", "topRatedBuyingExperience": false, "priorityListing": false, "listingMarketplaceId": "EBAY_US"}, {"itemId": "v1|115517731063|0", "title": "Nerf Lot of 12 Guns in good condition ", "leafCategoryIds": ["158749"], "categories": [{"categoryId": "158749", "categoryName": "Dart Guns & Soft Darts"}, {"categoryId": "220", "categoryName": "Toys & Hobbies"}, {"categoryId": "11743", "categoryName": "Outdoor Toys & Structures"}], "image": {"imageUrl": "https://i.ebayimg.com/thumbs/images/g/augAAOSwJ8tjF-zt/s-l225.jpg"}, "price": {"value": "150.00", "currency": "USD"}, "itemHref": "https://api.ebay.com/buy/browse/v1/item/v1%7C115517731063%7C0", "seller": {"username": "jonasjohn74", "feedbackPercentage": "99.7", "feedbackScore": 1159}, "condition": "Used", "conditionId": "3000", "thumbnailImages": [{"imageUrl": "https://i.ebayimg.com/images/g/augAAOSwJ8tjF-zt/s-l1600.jpg"}], "shippingOptions": [{"shippingCostType": "FIXED", "shippingCost": {"value": "50.00", "currency": "USD"}}], "buyingOptions": ["FIXED_PRICE", "BEST_OFFER"], "itemWebUrl": "https://www.ebay.com/itm/115517731063?hash=item1ae564b0f7:g:augAAOSwJ8tjF-zt", "itemLocation": {"postalCode": "846**", "country": "US"}, "additionalImages": [{"imageUrl": "https://i.ebayimg.com/thumbs/images/g/a40AAOSwSehjF-zu/s-l225.jpg"}, {"imageUrl": "https://i.ebayimg.com/thumbs/images/g/WIIAAOSwhfRjF-zv/s-l225.jpg"}, {"imageUrl": "https://i.ebayimg.com/thumbs/images/g/QjQAAOSwI39jF-zw/s-l225.jpg"}, {"imageUrl": "https://i.ebayimg.com/thumbs/images/g/764AAOSwXAVjF-zx/s-l225.jpg"}, {"imageUrl": "https://i.ebayimg.com/thumbs/images/g/k9EAAOSwVnljF-zy/s-l225.jpg"}], "adultOnly": false, "legacyItemId": "115517731063", "availableCoupons": false, "itemCreationDate": "2022-09-07T00:58:56.000Z", "topRatedBuyingExperience": false, "priorityListing": false, "listingMarketplaceId": "EBAY_US"}, {"itemId": "v1|225552897238|0", "title": "Nerf Gun Lot. 11 magazines, 9 blasters, 2 Barrels, 3 Scopes, 2 Stocks", "leafCategoryIds": ["158749"], "categories": [{"categoryId": "158749", "categoryName": "Dart Guns & Soft Darts"}, {"categoryId": "220", "categoryName": "Toys & Hobbies"}, {"categoryId": "11743", "categoryName": "Outdoor Toys & Structures"}], "image": {"imageUrl": "https://i.ebayimg.com/thumbs/images/g/N9IAAOSwb01kSvks/s-l225.jpg"}, "price": {"value": "100.00", "currency": "USD"}, "itemHref": "https://api.ebay.com/buy/browse/v1/item/v1%7C225552897238%7C0", "seller": {"username": "jowalte-93", "feedbackPercentage": "100.0", "feedbackScore": 167}, "condition": "Used", "conditionId": "3000", "thumbnailImages": [{"imageUrl": "https://i.ebayimg.com/images/g/N9IAAOSwb01kSvks/s-l1600.jpg"}], "shippingOptions": [{"shippingCostType": "FIXED", "shippingCost": {"value": "40.00", "currency": "USD"}}], "buyingOptions": ["FIXED_PRICE", "BEST_OFFER"], "itemWebUrl": "https://www.ebay.com/itm/225552897238?hash=item34840014d6:g:N9IAAOSwb01kSvks", "itemLocation": {"postalCode": "017**", "country": "US"}, "additionalImages": [{"imageUrl": "https://i.ebayimg.com/thumbs/images/g/5HsAAOSw2IFkSvkt/s-l225.jpg"}, {"imageUrl": "https://i.ebayimg.com/thumbs/images/g/lLkAAOSw4P5kSvkt/s-l225.jpg"}], "adultOnly": false, "legacyItemId": "225552897238", "availableCoupons": false, "itemCreationDate": "2023-04-27T22:39:24.000Z", "topRatedBuyingExperience": false, "priorityListing": false, "listingMarketplaceId": "EBAY_US"}]}